Estimating the propensity score
…
--
<br>
.box-1[
It was designed to investigate the relationships between clinical, nutritional, & behavioral factors and morbidity, mortality, and hospital utilization
]
---

class: title title-1

# Example

.small[

```
## # A tibble: 1,566 × 67
##     qsmk  wt82  seqn death yrdth modth dadth   sbp   dbp sex     age race 
##    <dbl> <dbl> <dbl> <dbl> <dbl> <dbl> <dbl> <dbl> <dbl> <fct> <dbl> <fct>
##  1     0  68.9   233     0    NA    NA    NA   175    96 0        42 1    
##  2     0  61.2   235     0    NA    NA    NA   123    80 0        36 0    
##  3     0  66.2   244     0    NA    NA    NA   115    75 1        56 1    
##  4     0  64.4   245     1    85     2    14   148    78 0        68 1    
##  5     0  92.1   252     0    NA    NA    NA   118    77 0        40 0    
##  6     0 103.    257     0    NA    NA    NA   141    83 1        43 1    
##  7     0  59.0   262     0    NA    NA    NA   132    69 1        56 0    
##  8     0  59.0   266     0    NA    NA    NA   100    53 1        29 0    
##  9     0  62.1   419     1    84    10    13   163    79 0        51 0    
## 10     0  72.1   420     1    86    10    17   184   106 0        43 0    
## # … with 1,556 more rows, and 55 more variables: income <dbl>, marital <dbl>,
## #   school <dbl>, education <fct>, ht <dbl>, wt71 <dbl>, wt82_71 <dbl>,
## #   birthplace <dbl>, smokeintensity <dbl>, smkintensity82_71 <dbl>,
## #   smokeyrs <dbl>, asthma <dbl>, bronch <dbl>, tb <dbl>, hf <dbl>, hbp <dbl>,
## #   pepticulcer <dbl>, colitis <dbl>, hepatitis <dbl>, chroniccough <dbl>,
## #   hayfever <dbl>, diabetes <dbl>, polio <dbl>, tumor <dbl>,
## #   nervousbreak <dbl>, alcoholpy <dbl>, alcoholfreq <dbl>, …
```
…
*nhefs_complete_uc %>%
* select(qsmk, .fitted)
```
]
]

.pull-right[

```
## # A tibble: 1,566 × 2
##     qsmk .fitted
##    <dbl>   <dbl>
##  1     0   0.192
##  2     0   0.238
##  3     0   0.181
##  4     0   0.262
##  5     0   0.295
##  6     0   0.172
##  7     0   0.299
##  8     0   0.182
##  9     0   0.315
## 10     0   0.273
## # … with 1,556 more rows
```
…
