Outcome Models
…
--

.box-inv-1[
What about the variability?
]
---
class: title title-1

# Example

.small[

```
## # A tibble: 1,100 × 5
##    coffee_town cups_of_coffee   age job   smoke
##          <dbl>          <dbl> <dbl> <chr> <chr>
##  1           1              0  12.1 none  never
##  2           0              0  14.6 none  never
##  3           1              0  11.5 none  never
##  4           0              1  18.8 easy  never
##  5           0              0  15.0 none  never
##  6           1              0  11.5 none  never
##  7           1              0  15.5 none  never
##  8           1              0  16.2 easy  never
##  9           1              0  15.7 none  never
## 10           0              0  13.1 none  never
## # … with 1,090 more rows
```
…
