Missing Data
…
class: title title-1

# Adding in the PS weighting

```r
nhanes_imp %>%
  complete(action = "long") %>%
  group_by(.imp) %>%
  do(fit_ps(.))  %>%
  ungroup()
```

```
## # A tibble: 125 × 13
##     .imp   .id   age   bmi   hyp   chl   exp .fitted .resid .std.resid   .hat
##    <int> <int> <dbl> <dbl> <dbl> <dbl> <int>   <dbl>  <dbl>      <dbl>  <dbl>
##  1     1     1     1  33.2     2   218     0   0.297 -0.840     -0.908 0.145 
##  2     1     2     2  22.7     1   187     1   0.742  0.772      0.814 0.100 
##  3     1     3     1  33.2     1   187     0   0.242 -0.744     -0.797 0.128 
##  4     1     4     3  30.1     1   284     1   0.357  1.44       1.66  0.251 
##  5     1     5     1  20.4     1   113     1   0.827  0.616      0.697 0.220 
##  6     1     6     3  22.7     1   184     1   0.613  0.990      1.13  0.228 
##  7     1     7     1  22.5     1   118     1   0.742  0.772      0.866 0.204 
##  8     1     8     1  30.1     1   187     1   0.420  1.32       1.38  0.0935
##  9     1     9     2  22       1   238     1   0.846  0.578      0.666 0.246 
## 10     1    10     2  20.4     1   238     0   0.893 -2.12      -2.44  0.251 
## # … with 115 more rows, and 2 more variables: .sigma <dbl>, .cooksd <dbl>
```
…
# Adding in the PS weighting

```r
nhanes_imp %>%
  complete(action = "long") %>%
  group_by(.imp) %>%
  do(fit_ps(.))  %>%
  ungroup() %>%
  group_by(.id, exp) %>%
  summarise(ps_avg = mean(.fitted), .groups = "drop") %>%
  mutate(wt = exp / ps_avg + (1 - exp) / (1 - ps_avg)) 
```

```
## # A tibble: 25 × 4
##      .id   exp ps_avg    wt
##    <int> <int>  <dbl> <dbl>
##  1     1     0  0.303  1.43
##  2     2     1  0.757  1.32
##  3     3     0  0.325  1.48
##  4     4     1  0.608  1.64
##  5     5     1  0.904  1.11
##  6     6     1  0.773  1.29
##  7     7     1  0.842  1.19
##  8     8     1  0.342  2.92
##  9     9     1  0.754  1.33
## 10    10     0  0.627  2.68
## # … with 15 more rows
```
…
